Projekt ZED
…
Najpopularniejsze kolory

## # A tibble: 263 × 4
##       id name           rgb    is_trans
##    <dbl> <chr>          <chr>  <lgl>   
##  1    -1 [Unknown]      0033B2 FALSE   
##  2     0 Black          05131D FALSE   
##  3     1 Blue           0055BF FALSE   
##  4     2 Green          237841 FALSE   
##  5     3 Dark Turquoise 008F9B FALSE   
##  6     4 Red            C91A09 FALSE   
##  7     5 Dark Pink      C870A0 FALSE   
##  8     6 Brown          583927 FALSE   
##  9     7 Light Gray     9BA19D FALSE   
## 10     8 Dark Gray      6D6E5C FALSE   
## # ℹ 253 more rows
…
